tidymodel official get started / chpt 5 A predictive modeling case study
…
rf_best <- rf_res %>% 
  select_best(metric = "roc_auc")

rf_best

## # A tibble: 1 x 3
##    mtry min_n .config
##   <int> <int> <chr>  
## 1     3     3 Model21

rf_res %>% 
  collect_predictions()

## # A tibble: 187,475 x 8
##    id         .pred_children .pred_none  .row  mtry min_n children .config
##    <chr>               <dbl>      <dbl> <int> <int> <int> <fct>    <chr>  
##  1 validation       0.00207       0.998    11    12     7 none     Model01
##  2 validation       0.00025       1.00     13    12     7 none     Model01
##  3 validation       0.000333      1.00     31    12     7 none     Model01
##  4 validation       0.000143      1.00     32    12     7 none     Model01
##  5 validation       0             1        36    12     7 none     Model01
##  6 validation       0.0888        0.911    43    12     7 none     Model01
##  7 validation       0.123         0.877    45    12     7 none     Model01
##  8 validation       0.0673        0.933    47    12     7 none     Model01
##  9 validation       0.167         0.833    48    12     7 none     Model01
## 10 validation       0.00424       0.996    53    12     7 none     Model01
## # ... with 187,465 more rows
…
