tidymodels official get started / chpt 3 Evaluate your model with resampling
…
library(modeldata)

The cell image data

Image Segmentation에 활용되는 데이터

data(cells, packages = "modeldata")

## Warning in data(cells, packages = "modeldata"): data set 'modeldata' not found

cells

## # A tibble: 2,019 x 58
##    case  class angle_ch_1 area_ch_1 avg_inten_ch_1 avg_inten_ch_2 avg_inten_ch_3
##    <fct> <fct>      <dbl>     <int>          <dbl>          <dbl>          <dbl>
##  1 Test  PS        143.         185           15.7           4.95           9.55
##  2 Train PS        134.         819           31.9         207.            69.9 
##  3 Train WS        107.         431           28.0         116.            63.9 
##  4 Train PS         69.2        298           19.5         102.            28.2 
##  5 Test  PS          2.89       285           24.3         112.            20.5 
##  6 Test  WS         40.7        172          326.          654.           129.  
##  7 Test  WS        174.         177          260.          596.           124.  
##  8 Test  PS        180.         251           18.3           5.73          17.2 
##  9 Test  WS         18.9        495           16.1          89.5           13.7 
## 10 Test  WS        153.         384           17.7          89.9           20.4 
## # ... with 2,009 more rows, and 51 more variables: avg_inten_ch_4 <dbl>,
## #   convex_hull_area_ratio_ch_1 <dbl>, convex_hull_perim_ratio_ch_1 <dbl>,
## #   diff_inten_density_ch_1 <dbl>, diff_inten_density_ch_3 <dbl>,
## #   diff_inten_density_ch_4 <dbl>, entropy_inten_ch_1 <dbl>,
## #   entropy_inten_ch_3 <dbl>, entropy_inten_ch_4 <dbl>,
## #   eq_circ_diam_ch_1 <dbl>, eq_ellipse_lwr_ch_1 <dbl>,
## #   eq_ellipse_oblate_vol_ch_1 <dbl>, eq_ellipse_prolate_vol_ch_1 <dbl>,
## #   eq_sphere_area_ch_1 <dbl>, eq_sphere_vol_ch_1 <dbl>,
## #   fiber_align_2_ch_3 <dbl>, fiber_align_2_ch_4 <dbl>,
…
Back to the cells data

cells

## # A tibble: 2,019 x 58
##    case  class angle_ch_1 area_ch_1 avg_inten_ch_1 avg_inten_ch_2 avg_inten_ch_3
##    <fct> <fct>      <dbl>     <int>          <dbl>          <dbl>          <dbl>
##  1 Test  PS        143.         185           15.7           4.95           9.55
##  2 Train PS        134.         819           31.9         207.            69.9 
##  3 Train WS        107.         431           28.0         116.            63.9 
##  4 Train PS         69.2        298           19.5         102.            28.2 
##  5 Test  PS          2.89       285           24.3         112.            20.5 
##  6 Test  WS         40.7        172          326.          654.           129.  
##  7 Test  WS        174.         177          260.          596.           124.  
##  8 Test  PS        180.         251           18.3           5.73          17.2 
##  9 Test  WS         18.9        495           16.1          89.5           13.7 
## 10 Test  WS        153.         384           17.7          89.9           20.4 
## # ... with 2,009 more rows, and 51 more variables: avg_inten_ch_4 <dbl>,
## #   convex_hull_area_ratio_ch_1 <dbl>, convex_hull_perim_ratio_ch_1 <dbl>,
## #   diff_inten_density_ch_1 <dbl>, diff_inten_density_ch_3 <dbl>,
## #   diff_inten_density_ch_4 <dbl>, entropy_inten_ch_1 <dbl>,
## #   entropy_inten_ch_3 <dbl>, entropy_inten_ch_4 <dbl>,
## #   eq_circ_diam_ch_1 <dbl>, eq_ellipse_lwr_ch_1 <dbl>,
## #   eq_ellipse_oblate_vol_ch_1 <dbl>, eq_ellipse_prolate_vol_ch_1 <dbl>,
## #   eq_sphere_area_ch_1 <dbl>, eq_sphere_vol_ch_1 <dbl>,
## #   fiber_align_2_ch_3 <dbl>, fiber_align_2_ch_4 <dbl>,
…
Estimating performance

predict(rf_fit, cell_train) %>% 
  bind_cols(predict(rf_fit, cell_train, type = "prob")) %>% 
  # Add the true outcome data back in
  bind_cols(cell_train %>% select(class))

## # A tibble: 1,515 x 4
##    .pred_class .pred_PS .pred_WS class
##    <fct>          <dbl>    <dbl> <fct>
##  1 PS            0.919    0.0810 PS   
##  2 PS            0.695    0.305  PS   
##  3 WS            0.238    0.762  WS   
##  4 PS            0.917    0.0832 PS   
##  5 PS            0.970    0.0297 PS   
##  6 WS            0.0590   0.941  WS   
##  7 WS            0.104    0.896  WS   
##  8 PS            0.948    0.0519 PS   
##  9 WS            0.288    0.712  WS   
## 10 WS            0.394    0.606  WS   
## # ... with 1,505 more rows
…
