…
### grid_regular from dials package
tree_grid <- grid_regular(cost_complexity(),
                          tree_depth(),
                          levels = 5) # parameter별로 5개씩 테스트, 총 25개

tree_grid

## # A tibble: 25 x 2
##    cost_complexity tree_depth
##              <dbl>      <int>
##  1    0.0000000001          1
##  2    0.0000000178          1
##  3    0.00000316            1
##  4    0.000562              1
##  5    0.1                   1
##  6    0.0000000001          4
##  7    0.0000000178          4
##  8    0.00000316            4
##  9    0.000562              4
## 10    0.1                   4
## # ... with 15 more rows
…
tree_res %>% 
  collect_metrics()

## # A tibble: 50 x 8
##    cost_complexity tree_depth .metric  .estimator  mean     n std_err .config
##              <dbl>      <int> <chr>    <chr>      <dbl> <int>   <dbl> <chr>  
##  1    0.0000000001          1 accuracy binary     0.764    10 0.0101  Model01
##  2    0.0000000001          1 roc_auc  binary     0.792    10 0.00804 Model01
##  3    0.0000000178          1 accuracy binary     0.764    10 0.0101  Model02
##  4    0.0000000178          1 roc_auc  binary     0.792    10 0.00804 Model02
##  5    0.00000316            1 accuracy binary     0.764    10 0.0101  Model03
##  6    0.00000316            1 roc_auc  binary     0.792    10 0.00804 Model03
##  7    0.000562              1 accuracy binary     0.764    10 0.0101  Model04
##  8    0.000562              1 roc_auc  binary     0.792    10 0.00804 Model04
##  9    0.1                   1 accuracy binary     0.764    10 0.0101  Model05
## 10    0.1                   1 roc_auc  binary     0.792    10 0.00804 Model05
## # ... with 40 more rows
…
