…
Model Training

iris_ranger <- rand_forest(trees = 100, mode = "classification") %>% 
  set_engine("ranger") %>% 
  fit(Species ~ ., data = iris_training)

iris_rf <- rand_forest(trees = 100, mode = "classification") %>% 
  set_engine("randomForest") %>% 
  fit(Species ~ ., data = iris_training)

Prediction

predict(iris_ranger, iris_testing)

## # A tibble: 60 x 1
##    .pred_class
##    <fct>      
##  1 setosa     
##  2 setosa     
##  3 setosa     
##  4 setosa     
##  5 setosa     
##  6 setosa     
##  7 setosa     
##  8 setosa     
##  9 setosa     
## 10 setosa     
## # ... with 50 more rows
…
