…
날짜에서 numeric date 추출

이를 통해 여러 의미있는 내용 추출

요일

달

휴일이 있는 지?

flight_data %>% 
  distinct(date) %>% # date 컬럼에서 distinct한 값을 가져옴
  mutate(numeric_date = as.numeric(date))

## # A tibble: 364 x 2
##    date       numeric_date
##    <date>            <dbl>
##  1 2013-01-01        15706
##  2 2013-01-02        15707
##  3 2013-01-03        15708
##  4 2013-01-04        15709
##  5 2013-01-05        15710
##  6 2013-01-06        15711
##  7 2013-01-07        15712
##  8 2013-01-08        15713
##  9 2013-01-09        15714
## 10 2013-01-10        15715
## # ... with 354 more rows
…
flights_fit <-
  flights_wflow %>% 
  fit(data = train_data)

workflow에서 recipe나 모델을 추출하기 위해서는 pull_workflow_prepped_recipe나 pull_workflow_fit 함수를 사용한다.

flights_fit %>% 
  pull_workflow_fit() %>% 
  tidy()

## # A tibble: 157 x 5
##    term                         estimate std.error statistic  p.value
##    <chr>                           <dbl>     <dbl>     <dbl>    <dbl>
##  1 (Intercept)                   3.91    2.73           1.43 1.51e- 1
##  2 dep_time                     -0.00167 0.0000141   -118.   0.      
##  3 air_time                     -0.0439  0.000561     -78.4  0.      
##  4 distance                      0.00686 0.00150        4.57 4.84e- 6
##  5 date_USChristmasDay           1.12    0.173          6.49 8.45e-11
##  6 date_USColumbusDay            0.474   0.159          2.99 2.81e- 3
##  7 date_USCPulaskisBirthday      0.864   0.139          6.21 5.47e-10
##  8 date_USDecorationMemorialDay  0.279   0.110          2.53 1.15e- 2
##  9 date_USElectionDay            0.696   0.169          4.12 3.82e- 5
## 10 date_USGoodFriday             1.28    0.166          7.71 1.27e-14
## # ... with 147 more rows

Use a trained workflow to predict

predict(flights_fit, test_data)

## # A tibble: 81,454 x 1
##    .pred_class
##    <fct>      
##  1 on_time    
##  2 on_time    
##  3 on_time    
##  4 on_time    
##  5 on_time    
##  6 on_time    
##  7 on_time    
##  8 on_time    
##  9 on_time    
## 10 on_time    
## # ... with 81,444 more rows
…
